{
  "firmware_uuid" : "497943d4-a582-4d36-aba1-d4848135ea28",
  "menu_uuid"     : "dc2d8756-228d-4263-9f4e-3f20cf9295a4",
  "n_modules"     : 6,
  "guide"         : ["AlgoName", "Global_Index", "Module_Index", "Local_Index"],
  "algorithms"    : [
    ["L1_SingleMuCosmics", 0, 4, 43],
    ["L1_SingleMuOpen", 1, 0, 9],
    ["L1_SingleMuCosmics_BMTF", 2, 1, 51],
    ["L1_SingleMuCosmics_OMTF", 3, 4, 44],
    ["L1_SingleMuCosmics_EMTF", 4, 5, 50],
    ["L1_SingleMu0_BMTF", 5, 4, 37],
    ["L1_SingleMu0_OMTF", 6, 1, 45],
    ["L1_SingleMu0_EMTF", 7, 5, 38],
    ["L1_SingleMu3", 8, 1, 49],
    ["L1_SingleMu5", 9, 5, 17],
    ["L1_SingleMu7", 10, 5, 27],
    ["L1_SingleMu10_LowQ", 11, 0, 60],
    ["L1_SingleMu11_LowQ", 12, 4, 38],
    ["L1_SingleMu12_LowQ_BMTF", 13, 5, 39],
    ["L1_SingleMu12_LowQ_OMTF", 14, 0, 61],
    ["L1_SingleMu12_LowQ_EMTF", 15, 1, 46],
    ["L1_SingleMu16", 16, 4, 39],
    ["L1_SingleMu18", 17, 2, 97],
    ["L1_SingleMu20", 18, 5, 26],
    ["L1_SingleMu22", 19, 1, 47],
    ["L1_SingleMu22_BMTF", 20, 0, 62],
    ["L1_SingleMu22_OMTF", 21, 1, 48],
    ["L1_SingleMu22_EMTF", 22, 4, 40],
    ["L1_SingleMu25", 23, 4, 41],
    ["L1_SingleMu30", 24, 4, 42],
    ["L1_SingleMu14er2p1", 25, 4, 6],
    ["L1_SingleMu16er2p1", 26, 5, 40],
    ["L1_SingleMu18er2p1", 27, 5, 46],
    ["L1_SingleMu20er2p1", 28, 5, 49],
    ["L1_SingleMu22er2p1", 29, 0, 63],
    ["L1_DoubleMu0", 30, 2, 22],
    ["L1_DoubleMu_11_4", 31, 5, 54],
    ["L1_DoubleMu_12_5", 32, 0, 77],
    ["L1_DoubleMu_12_8", 33, 4, 48],
    ["L1_DoubleMu_13_6", 34, 1, 56],
    ["L1_DoubleMu_15_5", 35, 5, 55],
    ["L1_DoubleMu_15_7", 36, 4, 49],
    ["L1_DoubleMu18er2p1", 37, 1, 53],
    ["L1_DoubleMu22er2p1", 38, 5, 52],
    ["L1_TripleMu0", 39, 0, 82],
    ["L1_TripleMu3", 40, 5, 60],
    ["L1_TripleMu_4_4_4", 41, 4, 54],
    ["L1_TripleMu_5_0_0", 42, 0, 84],
    ["L1_TripleMu_5_3_3", 43, 4, 55],
    ["L1_TripleMu_5_5_3", 44, 0, 85],
    ["L1_QuadMu0", 45, 0, 88],
    ["L1_SingleEG5", 50, 1, 18],
    ["L1_SingleEG10", 51, 5, 8],
    ["L1_SingleEG15", 52, 5, 10],
    ["L1_SingleEG18", 53, 1, 8],
    ["L1_SingleEG24", 54, 1, 9],
    ["L1_SingleEG26", 55, 1, 10],
    ["L1_SingleEG28", 56, 1, 11],
    ["L1_SingleEG30", 57, 1, 12],
    ["L1_SingleEG32", 58, 1, 13],
    ["L1_SingleEG34", 59, 1, 14],
    ["L1_SingleEG36", 60, 1, 15],
    ["L1_SingleEG38", 61, 1, 16],
    ["L1_SingleEG40", 62, 1, 17],
    ["L1_SingleEG42", 63, 0, 32],
    ["L1_SingleEG45", 64, 4, 10],
    ["L1_SingleEG50", 65, 0, 33],
    ["L1_SingleEG34er2p1", 66, 4, 7],
    ["L1_SingleEG36er2p1", 67, 4, 8],
    ["L1_SingleEG38er2p1", 68, 4, 9],
    ["L1_SingleIsoEG18", 69, 4, 11],
    ["L1_SingleIsoEG20", 70, 0, 34],
    ["L1_SingleIsoEG22", 71, 1, 20],
    ["L1_SingleIsoEG24", 72, 4, 13],
    ["L1_SingleIsoEG26", 73, 0, 36],
    ["L1_SingleIsoEG28", 74, 1, 22],
    ["L1_SingleIsoEG30", 75, 4, 15],
    ["L1_SingleIsoEG32", 76, 0, 38],
    ["L1_SingleIsoEG34", 77, 0, 39],
    ["L1_SingleIsoEG35", 78, 1, 25],
    ["L1_SingleIsoEG36", 79, 4, 18],
    ["L1_SingleIsoEG37", 80, 0, 41],
    ["L1_SingleIsoEG38", 81, 4, 19],
    ["L1_SingleIsoEG40", 82, 0, 42],
    ["L1_SingleIsoEG18er2p1", 83, 1, 19],
    ["L1_SingleIsoEG20er2p1", 84, 4, 12],
    ["L1_SingleIsoEG22er2p1", 85, 0, 35],
    ["L1_SingleIsoEG24er2p1", 86, 1, 21],
    ["L1_SingleIsoEG26er2p1", 87, 4, 14],
    ["L1_SingleIsoEG28er2p1", 88, 0, 37],
    ["L1_SingleIsoEG30er2p1", 89, 1, 23],
    ["L1_SingleIsoEG32er2p1", 90, 4, 16],
    ["L1_SingleIsoEG33er2p1", 91, 1, 24],
    ["L1_SingleIsoEG34er2p1", 92, 4, 17],
    ["L1_SingleIsoEG35er2p1", 93, 0, 40],
    ["L1_SingleIsoEG36er2p1", 94, 1, 26],
    ["L1_SingleIsoEG38er2p1", 95, 1, 27],
    ["L1_SingleIsoEG40er2p1", 96, 4, 20],
    ["L1_IsoEG33_Mt40", 97, 4, 59],
    ["L1_IsoEG33_Mt44", 98, 0, 89],
    ["L1_IsoEG33_Mt48", 99, 4, 60],
    ["L1_DoubleEG_15_10", 100, 5, 28],
    ["L1_DoubleEG_18_17", 101, 1, 35],
    ["L1_DoubleEG_20_18", 102, 0, 50],
    ["L1_DoubleEG_22_10", 103, 4, 28],
    ["L1_DoubleEG_22_12", 104, 5, 29],
    ["L1_DoubleEG_22_15", 105, 1, 36],
    ["L1_DoubleEG_23_10", 106, 0, 51],
    ["L1_DoubleEG_24_17", 107, 4, 29],
    ["L1_DoubleEG_25_12", 108, 5, 30],
    ["L1_DoubleEG_25_13", 109, 1, 37],
    ["L1_DoubleEG_25_14", 110, 0, 52],
    ["L1_DoubleLooseIsoEG22er2p1", 111, 5, 35],
    ["L1_DoubleLooseIsoEG24er2p1", 112, 1, 42],
    ["L1_TripleEG_14_10_8", 113, 5, 37],
    ["L1_TripleEG_18_17_8", 114, 1, 44],
    ["L1_SingleTau20", 115, 1, 34],
    ["L1_SingleTau80er2p1", 116, 0, 49],
    ["L1_SingleTau100er2p1", 117, 4, 25],
    ["L1_SingleTau120er2p1", 118, 1, 33],
    ["L1_SingleTau130er2p1", 119, 0, 48],
    ["L1_SingleTau140er2p1", 120, 4, 26],
    ["L1_DoubleTau50er2p1", 121, 0, 57],
    ["L1_DoubleTau70er2p1", 122, 4, 35],
    ["L1_DoubleIsoTau28er2p1", 123, 1, 38],
    ["L1_DoubleIsoTau30er2p1", 124, 0, 53],
    ["L1_DoubleIsoTau32er2p1", 125, 4, 31],
    ["L1_DoubleIsoTau33er2p1", 126, 5, 32],
    ["L1_DoubleIsoTau34er2p1", 127, 1, 39],
    ["L1_DoubleIsoTau35er2p1", 128, 0, 54],
    ["L1_DoubleIsoTau36er2p1", 129, 4, 32],
    ["L1_DoubleIsoTau38er2p1", 130, 5, 33],
    ["L1_SingleJet16", 131, 1, 29],
    ["L1_SingleJet20", 132, 0, 45],
    ["L1_SingleJet35", 133, 1, 31],
    ["L1_SingleJet60", 134, 2, 84],
    ["L1_SingleJet90", 135, 2, 102],
    ["L1_SingleJet120", 136, 1, 28],
    ["L1_SingleJet140", 137, 0, 43],
    ["L1_SingleJet150", 138, 4, 21],
    ["L1_SingleJet160", 139, 0, 44],
    ["L1_SingleJet170", 140, 4, 22],
    ["L1_SingleJet180", 141, 1, 30],
    ["L1_SingleJet200", 142, 4, 23],
    ["L1_SingleJet35_FWD", 143, 1, 43],
    ["L1_SingleJet60_FWD", 144, 0, 58],
    ["L1_SingleJet90_FWD", 145, 4, 36],
    ["L1_SingleJet120_FWD", 146, 5, 36],
    ["L1_SingleJet35_HFp", 147, 4, 24],
    ["L1_SingleJet35_HFm", 148, 0, 46],
    ["L1_SingleJet60_HFp", 149, 0, 47],
    ["L1_SingleJet60_HFm", 150, 1, 32],
    ["L1_DoubleJet40er2p7", 151, 1, 41],
    ["L1_DoubleJet50er2p7", 152, 0, 56],
    ["L1_DoubleJet60er2p7", 153, 2, 53],
    ["L1_DoubleJet80er2p7", 154, 4, 34],
    ["L1_DoubleJet100er2p7", 155, 1, 40],
    ["L1_DoubleJet112er2p7", 156, 0, 55],
    ["L1_DoubleJet120er2p7", 157, 4, 33],
    ["L1_DoubleJet150er2p7", 158, 5, 34],
    ["L1_TripleJet_84_68_48_VBF", 159, 5, 58],
    ["L1_TripleJet_88_72_56_VBF", 160, 0, 81],
    ["L1_TripleJet_92_76_64_VBF", 161, 4, 52],
    ["L1_TripleJet_98_83_71_VBF", 162, 5, 59],
    ["L1_TripleJet_105_85_76_VBF", 163, 4, 51],
    ["L1_TripleJet_100_85_72_VBF", 164, 4, 50],
    ["L1_QuadJet40er2p7", 165, 3, 16],
    ["L1_QuadJet50er2p7", 166, 1, 65],
    ["L1_QuadJet60er2p7", 167, 0, 97],
    ["L1_HTT120er", 168, 5, 5],
    ["L1_HTT160er", 169, 1, 5],
    ["L1_HTT200er", 170, 2, 78],
    ["L1_HTT220er", 171, 2, 56],
    ["L1_HTT240er", 172, 2, 42],
    ["L1_HTT255er", 173, 2, 87],
    ["L1_HTT270er", 174, 2, 90],
    ["L1_HTT280er", 175, 2, 94],
    ["L1_HTT300er", 176, 2, 101],
    ["L1_HTT320er", 177, 3, 5],
    ["L1_HTT340er", 178, 3, 8],
    ["L1_HTT380er", 179, 5, 6],
    ["L1_HTT400er", 180, 1, 6],
    ["L1_HTT450er", 181, 5, 7],
    ["L1_HTT500er", 182, 1, 7],
    ["L1_ETM30", 183, 4, 3],
    ["L1_ETM40", 184, 2, 119],
    ["L1_ETM50", 185, 5, 4],
    ["L1_ETM60", 186, 2, 65],
    ["L1_ETM70", 187, 2, 66],
    ["L1_ETM75", 188, 1, 4],
    ["L1_ETM80", 189, 2, 74],
    ["L1_ETM85", 190, 2, 9],
    ["L1_ETM90", 191, 2, 82],
    ["L1_ETM95", 192, 2, 85],
    ["L1_ETM100", 193, 2, 3],
    ["L1_ETM105", 194, 2, 96],
    ["L1_ETM110", 195, 2, 19],
    ["L1_ETM115", 196, 2, 4],
    ["L1_ETM120", 197, 2, 21],
    ["L1_ETM150", 198, 3, 3],
    ["L1_ETMHF70", 199, 2, 5],
    ["L1_ETMHF80", 200, 2, 8],
    ["L1_ETMHF90", 201, 2, 30],
    ["L1_ETMHF100", 202, 2, 88],
    ["L1_ETMHF110", 203, 2, 33],
    ["L1_ETMHF120", 204, 2, 121],
    ["L1_ETMHF150", 205, 3, 4],
    ["L1_SingleMuOpen_NotBptxOR", 210, 0, 12],
    ["L1_SingleMuOpen_NotBptxOR_3BX", 211, 0, 11],
    ["L1_SingleJet20er2p7_NotBptxOR", 212, 0, 7],
    ["L1_SingleJet20er2p7_NotBptxOR_3BX", 213, 0, 22],
    ["L1_SingleJet43er2p7_NotBptxOR_3BX", 214, 0, 24],
    ["L1_SingleJet46er2p7_NotBptxOR_3BX", 215, 0, 21],
    ["L1_DoubleJet30_Mass_Min300_dEta_Max1p5", 216, 1, 66],
    ["L1_DoubleJet30_Mass_Min320_dEta_Max1p5", 217, 0, 98],
    ["L1_DoubleJet30_Mass_Min340_dEta_Max1p5", 218, 2, 132],
    ["L1_DoubleJet30_Mass_Min360_dEta_Max1p5", 219, 4, 70],
    ["L1_DoubleJet30_Mass_Min380_dEta_Max1p5", 220, 3, 19],
    ["L1_DoubleJet30_Mass_Min400_dEta_Max1p5", 221, 5, 75],
    ["L1_DoubleMu0er2_SQ_dR_Max1p4", 222, 0, 92],
    ["L1_DoubleMu0er1p5_SQ_dR_Max1p4", 223, 1, 60],
    ["L1_LooseIsoEG24er2p1_Jet26er2p7_dR_Min0p3", 225, 3, 20],
    ["L1_LooseIsoEG26er2p1_Jet34er2p7_dR_Min0p3", 226, 5, 76],
    ["L1_LooseIsoEG28er2p1_Jet34er2p7_dR_Min0p3", 227, 1, 68],
    ["L1_LooseIsoEG30er2p1_Jet34er2p7_dR_Min0p3", 228, 0, 100],
    ["L1_LooseIsoEG24er2p1_HTT100er", 229, 2, 64],
    ["L1_LooseIsoEG26er2p1_HTT100er", 230, 2, 110],
    ["L1_LooseIsoEG28er2p1_HTT100er", 231, 2, 73],
    ["L1_LooseIsoEG24er2p1_TripleJet_26er2p7_26_26er2p7", 232, 2, 71],
    ["L1_Mu18_HTT100er", 233, 2, 111],
    ["L1_Mu18_Jet24er2p7", 234, 2, 112],
    ["L1_Mu20_EG17", 235, 5, 25],
    ["L1_Mu23_EG10", 236, 5, 23],
    ["L1_Mu23_LooseIsoEG10", 237, 5, 19],
    ["L1_Mu5_EG23", 238, 5, 22],
    ["L1_Mu5_LooseIsoEG20", 239, 5, 12],
    ["L1_Mu7_EG23", 240, 5, 14],
    ["L1_Mu7_LooseIsoEG20", 241, 5, 21],
    ["L1_Mu7_LooseIsoEG23", 242, 5, 11],
    ["L1_HTT250er_QuadJet_70_55_40_35_er2p5", 243, 2, 83],
    ["L1_HTT280er_QuadJet_70_55_40_35_er2p5", 244, 2, 98],
    ["L1_HTT300er_QuadJet_70_55_40_35_er2p5", 245, 2, 105],
    ["L1_HTT320er_QuadJet_70_55_40_40_er2p4", 246, 3, 11],
    ["L1_HTT320er_QuadJet_70_55_40_40_er2p5", 247, 3, 6],
    ["L1_HTT340er_QuadJet_70_55_40_40_er2p5", 248, 3, 9],
    ["L1_HTT320er_QuadJet_70_55_45_45_er2p5", 249, 3, 7],
    ["L1_HTT340er_QuadJet_70_55_45_45_er2p5", 250, 3, 10],
    ["L1_DoubleJet100er2p3_dEta_Max1p6", 251, 1, 59],
    ["L1_DoubleJet112er2p3_dEta_Max1p6", 252, 0, 91],
    ["L1_Mu10er2p3_Jet32er2p3_dR_Max0p4_DoubleJet32er2p3_dEta_Max1p6", 253, 4, 73],
    ["L1_Mu12er2p3_Jet40er2p3_dR_Max0p4_DoubleJet40er2p3_dEta_Max1p6", 254, 3, 22],
    ["L1_IsoTau40er_ETM80", 255, 2, 70],
    ["L1_IsoTau40er_ETM85", 256, 2, 39],
    ["L1_IsoTau40er_ETM90", 257, 2, 41],
    ["L1_IsoTau40er_ETM95", 258, 2, 44],
    ["L1_IsoTau40er_ETM100", 259, 2, 20],
    ["L1_IsoTau40er_ETM105", 260, 2, 47],
    ["L1_IsoTau40er_ETM110", 261, 2, 25],
    ["L1_IsoTau40er_ETM115", 262, 2, 28],
    ["L1_IsoTau40er_ETM120", 263, 2, 37],
    ["L1_IsoTau40er_ETMHF80", 264, 2, 48],
    ["L1_IsoTau40er_ETMHF90", 265, 2, 55],
    ["L1_IsoTau40er_ETMHF100", 266, 2, 43],
    ["L1_IsoTau40er_ETMHF110", 267, 2, 46],
    ["L1_IsoTau40er_ETMHF120", 268, 2, 51],
    ["L1_Mu22er2p1_IsoTau40er2p1", 269, 2, 113],
    ["L1_QuadJet36er2p7_IsoTau52er2p1", 270, 2, 130],
    ["L1_ETM80_Jet60_dPhi_Min0p4", 271, 0, 87],
    ["L1_ETM90_Jet60_dPhi_Min0p4", 272, 4, 58],
    ["L1_ETM100_Jet60_dPhi_Min0p4", 273, 4, 56],
    ["L1_ETM110_Jet60_dPhi_Min0p4", 274, 0, 86],
    ["L1_DoubleJet60er2p7_ETM70", 275, 2, 60],
    ["L1_DoubleJet60er2p7_ETM80", 276, 2, 62],
    ["L1_DoubleJet60er2p7_ETM90", 277, 2, 120],
    ["L1_DoubleJet60er2p7_ETM100", 278, 2, 58],
    ["L1_DoubleEG_LooseIso23_10", 279, 4, 30],
    ["L1_DoubleEG_LooseIso24_10", 280, 5, 31],
    ["L1_TripleEG_LooseIso20_10_5", 281, 0, 59],
    ["L1_DoubleJet_90_30_DoubleJet30_Mass_Min620", 282, 4, 69],
    ["L1_DoubleJet_100_30_DoubleJet30_Mass_Min620", 283, 4, 68],
    ["L1_DoubleJet_100_35_DoubleJet35_Mass_Min620", 284, 5, 72],
    ["L1_DoubleJet_110_35_DoubleJet35_Mass_Min620", 285, 5, 73],
    ["L1_DoubleJet_110_40_DoubleJet40_Mass_Min620", 286, 3, 17],
    ["L1_DoubleJet_115_35_DoubleJet35_Mass_Min620", 287, 5, 74],
    ["L1_DoubleJet_115_40_DoubleJet40_Mass_Min620", 288, 3, 18],
    ["L1_DoubleJet30_Mass_Min400_Mu6", 289, 2, 40],
    ["L1_DoubleJet30_Mass_Min400_Mu10", 290, 2, 92],
    ["L1_LooseIsoEG18er2p1_IsoTau24er2p1_dR_Min0p3", 291, 1, 67],
    ["L1_DoubleJet35_rmovlp_IsoTau45_Mass_Min450", 292, 0, 102],
    ["L1_LooseIsoEG20er2p1_IsoTau25er2p1_dR_Min0p3", 293, 0, 99],
    ["L1_LooseIsoEG22er2p1_IsoTau26er2p1_dR_Min0p3", 294, 2, 133],
    ["L1_LooseIsoEG24er2p1_IsoTau27er2p1_dR_Min0p3", 295, 4, 71],
    ["L1_Mu16er2p1_Tau20er2p1", 296, 5, 48],
    ["L1_Mu16er2p1_Tau24er2p1", 297, 5, 42],
    ["L1_Mu18er2p1_Tau20er2p1", 298, 5, 43],
    ["L1_Mu18er2p1_Tau24er2p1", 299, 5, 45],
    ["L1_Mu22er2p1_Tau50er2p1", 300, 0, 66],
    ["L1_Mu22er2p1_Tau70er2p1", 301, 0, 73],
    ["L1_Mu18er2p1_IsoTau26er2p1", 302, 5, 41],
    ["L1_Mu20er2p1_IsoTau26er2p1", 303, 5, 47],
    ["L1_Mu20er2p1_IsoTau27er2p1", 304, 5, 44],
    ["L1_Mu22er2p1_IsoTau28er2p1", 305, 0, 65],
    ["L1_Mu22er2p1_IsoTau30er2p1", 306, 0, 70],
    ["L1_Mu22er2p1_IsoTau32er2p1", 307, 0, 69],
    ["L1_Mu22er2p1_IsoTau33er2p1", 308, 0, 67],
    ["L1_Mu22er2p1_IsoTau34er2p1", 309, 0, 71],
    ["L1_Mu22er2p1_IsoTau35er2p1", 310, 0, 64],
    ["L1_Mu22er2p1_IsoTau36er2p1", 311, 0, 68],
    ["L1_Mu22er2p1_IsoTau38er2p1", 312, 0, 72],
    ["L1_Mu6_HTT240er", 315, 2, 23],
    ["L1_Mu6_HTT250er", 316, 2, 24],
    ["L1_Mu15_HTT100er", 317, 2, 106],
    ["L1_DoubleMu0_ETMHF40_Jet60_OR_DoubleJet30", 318, 2, 6],
    ["L1_DoubleMu0_ETMHF50_Jet60_OR_DoubleJet30", 319, 2, 14],
    ["L1_DoubleMu0_ETMHF60_Jet60_OR_DoubleJet30", 320, 2, 50],
    ["L1_DoubleMu0_ETMHF70_Jet60_OR_DoubleJet30", 321, 2, 52],
    ["L1_DoubleMu0_ETMHF80_Jet60_OR_DoubleJet30", 322, 2, 54],
    ["L1_DoubleMu3_SQ_ETMHF40_Jet60_OR_DoubleJet30", 323, 2, 68],
    ["L1_DoubleMu3_SQ_ETMHF50_Jet60_OR_DoubleJet30", 324, 2, 72],
    ["L1_DoubleMu3_SQ_ETMHF60_Jet60_OR_DoubleJet30", 325, 2, 95],
    ["L1_DoubleMu3_SQ_ETMHF70_Jet60_OR_DoubleJet30", 326, 2, 76],
    ["L1_DoubleMu3_SQ_ETMHF80_Jet60_OR_DoubleJet30", 327, 2, 77],
    ["L1_DoubleMu3_SQ_HTT100er", 328, 2, 79],
    ["L1_DoubleMu3_SQ_HTT200er", 329, 2, 75],
    ["L1_DoubleMu3_SQ_HTT220er", 330, 2, 80],
    ["L1_DoubleMu3_SQ_HTT240er", 331, 2, 104],
    ["L1_DoubleMu_15_5_SQ", 332, 0, 78],
    ["L1_DoubleMu_15_7_SQ", 333, 1, 57],
    ["L1_DoubleMu_15_7_SQ_Mass_Min4", 334, 1, 58],
    ["L1_TripleMu3_SQ", 335, 0, 83],
    ["L1_DoubleEG6_HTT240er", 336, 2, 89],
    ["L1_DoubleEG6_HTT250er", 337, 2, 59],
    ["L1_DoubleEG6_HTT270er", 338, 2, 63],
    ["L1_DoubleEG6_HTT300er", 339, 2, 7],
    ["L1_DoubleEG8er2p6_HTT255er", 340, 2, 10],
    ["L1_DoubleEG8er2p6_HTT270er", 341, 2, 69],
    ["L1_DoubleEG8er2p6_HTT300er", 342, 2, 17],
    ["L1_ETMHF70_Jet60_OR_DoubleJet30", 343, 2, 86],
    ["L1_ETMHF75_Jet60_OR_DoubleJet30", 344, 2, 18],
    ["L1_ETMHF80_Jet60_OR_DoubleJet30", 345, 2, 29],
    ["L1_ETMHF85_Jet60_OR_DoubleJet30", 346, 2, 32],
    ["L1_ETMHF90_Jet60_OR_DoubleJet30", 347, 2, 123],
    ["L1_ETMHF95_Jet60_OR_DoubleJet30", 348, 2, 49],
    ["L1_ETMHF100_Jet60_OR_DoubleJet30", 349, 2, 109],
    ["L1_ETMHF105_Jet60_OR_DoubleJet30", 350, 2, 107],
    ["L1_ETMHF110_Jet60_OR_DoubleJet30", 351, 2, 115],
    ["L1_ETMHF115_Jet60_OR_DoubleJet30", 352, 2, 122],
    ["L1_ETMHF120_Jet60_OR_DoubleJet30", 353, 2, 114],
    ["L1_ETMHF70_Jet60_OR_DiJet30woTT28", 354, 2, 12],
    ["L1_ETMHF80_Jet60_OR_DiJet30woTT28", 355, 2, 27],
    ["L1_ETMHF90_Jet60_OR_DiJet30woTT28", 356, 2, 93],
    ["L1_ETMHF100_Jet60_OR_DiJet30woTT28", 357, 2, 99],
    ["L1_ETMHF110_Jet60_OR_DiJet30woTT28", 358, 2, 67],
    ["L1_ETMHF120_Jet60_OR_DiJet30woTT28", 359, 2, 124],
    ["L1_ETMHF70_Jet90_OR_DoubleJet45_OR_TripleJet30", 360, 2, 16],
    ["L1_ETMHF80_Jet90_OR_DoubleJet45_OR_TripleJet30", 361, 2, 31],
    ["L1_ETMHF90_Jet90_OR_DoubleJet45_OR_TripleJet30", 362, 2, 45],
    ["L1_ETMHF100_Jet90_OR_DoubleJet45_OR_TripleJet30", 363, 2, 91],
    ["L1_ETMHF110_Jet90_OR_DoubleJet45_OR_TripleJet30", 364, 2, 100],
    ["L1_DoubleMu7_SQ_EG7", 365, 0, 80],
    ["L1_ETMHF80_HTT60er", 366, 2, 35],
    ["L1_ETMHF90_HTT60er", 367, 2, 38],
    ["L1_ETMHF100_HTT60er", 368, 2, 81],
    ["L1_ETMHF110_HTT60er", 369, 2, 103],
    ["L1_ETMHF120_HTT60er", 370, 2, 118],
    ["L1_Mu3_Jet30er2p5", 371, 1, 50],
    ["L1_DoubleMu0er1p5_SQ_OS_dR_Max1p4", 375, 5, 65],
    ["L1_DoubleMu4p5er2p0_SQ_OS_Mass7to18", 376, 5, 66],
    ["L1_DoubleMu4_SQ_OS_dR_Max1p2", 377, 2, 125],
    ["L1_DoubleMu5_SQ_OS_Mass7to18", 378, 3, 12],
    ["L1_DoubleMu_20_2_SQ_Mass_Max20", 379, 1, 61],
    ["L1_DoubleMu4_OS_EG12", 380, 5, 56],
    ["L1_DoubleMu0er1p4_SQ_OS_dR_Max1p4", 381, 4, 62],
    ["L1_DoubleMu4p5_SQ_OS_dR_Max1p2", 382, 4, 63],
    ["L1_DoubleMu5_OS_EG12", 383, 5, 57],
    ["L1_DoubleMu6_SQ_OS", 384, 4, 47],
    ["L1_TripleMu_5_3p5_2p5_DoubleMu_5_2p5_OS_Mass_5to17", 385, 5, 63],
    ["L1_TripleMu_5_4_2p5_DoubleMu_5_2p5_OS_Mass_5to17", 386, 5, 64],
    ["L1_TripleMu_5SQ_3SQ_0OQ_DoubleMu_5_3_SQ_OS_Mass_Max9", 387, 5, 70],
    ["L1_TripleMu_5SQ_3SQ_0_DoubleMu_5_3_SQ_OS_Mass_Max9", 388, 5, 71],
    ["L1_DoubleMu8_SQ", 389, 1, 55],
    ["L1_DoubleMu0_SQ", 390, 5, 51],
    ["L1_DoubleMu0_SQ_OS", 391, 0, 74],
    ["L1_DoubleMu4p5_SQ", 392, 4, 46],
    ["L1_DoubleMu4p5_SQ_OS", 393, 1, 54],
    ["L1_DoubleMu4p5er2p0_SQ_OS", 394, 5, 53],
    ["L1_DoubleMu0er1p5_SQ_OS", 395, 4, 45],
    ["L1_DoubleMu4_SQ_OS", 396, 0, 75],
    ["L1_DoubleMu5_SQ_OS", 397, 0, 76],
    ["L1_TripleMu_5_3p5_2p5", 398, 5, 62],
    ["L1_TripleMu0_OQ", 399, 4, 53],
    ["L1_TripleMu_5SQ_3SQ_0OQ", 400, 5, 61],
    ["L1_DoubleMu5Upsilon_OS_DoubleEG3", 401, 2, 135],
    ["L1_DoubleMu3_OS_DoubleEG7p5Upsilon", 402, 0, 101],
    ["L1_TripleMu_5OQ_3p5OQ_2p5OQ_DoubleMu_5_2p5_OQ_OS_Mass_8to14", 403, 1, 70],
    ["L1_TripleMu_5OQ_3p5OQ_2p5OQ_DoubleMu_5_2p5_OQ_OS_Mass_5to17", 404, 1, 69],
    ["L1_Mu6_DoubleEG17", 405, 2, 13],
    ["L1_DoubleMu7_EG7", 406, 0, 79],
    ["L1_IsolatedBunch", 415, 0, 5],
    ["L1_FirstBunchInTrain", 416, 0, 6],
    ["L1_FirstBunchAfterTrain", 417, 0, 4],
    ["L1_Mu5_EG15", 418, 5, 20],
    ["L1_Mu5_EG20", 419, 5, 15],
    ["L1_Mu5_LooseIsoEG18", 420, 5, 9],
    ["L1_Mu12_EG10", 421, 5, 24],
    ["L1_Mu20_EG10", 422, 5, 16],
    ["L1_MU20_EG15", 423, 5, 13],
    ["L1_Mu20_LooseIsoEG6", 424, 5, 18],
    ["L1_Mu6_HTT200er", 425, 2, 116],
    ["L1_Mu8_HTT150er", 426, 1, 52],
    ["L1_EG25er2p1_HTT125er", 427, 4, 27],
    ["L1_EG27er2p1_HTT200er", 428, 2, 61],
    ["L1_DoubleJet60er2p7_ETM60", 429, 2, 57],
    ["L1_QuadJet36er2p7_Tau52", 430, 2, 131],
    ["L1_ETM75_Jet60_dPhi_Min0p4", 431, 4, 57],
    ["L1_DoubleMu0_ETM40", 432, 2, 26],
    ["L1_DoubleMu0_ETM55", 433, 2, 34],
    ["L1_DoubleMu0_ETM60", 434, 2, 36],
    ["L1_DoubleMu0_ETM65", 435, 2, 117],
    ["L1_DoubleMu0_ETM70", 436, 2, 108],
    ["L1_Jet32_DoubleMu_10_0_dPhi_Jet_Mu0_Max0p4_dPhi_Mu_Mu_Min1p0", 437, 5, 77],
    ["L1_Jet32_Mu0_EG10_dPhi_Jet_Mu_Max0p4_dPhi_Mu_EG_Min1p0", 438, 5, 78],
    ["L1_DoubleEG6_HTT255er", 439, 2, 15],
    ["L1_DoubleMu0er1p4_dEta_Max1p8_OS", 440, 0, 90],
    ["L1_DoubleMu_10_0_dEta_Max1p8", 441, 4, 61],
    ["L1_Mu6_DoubleEG10", 442, 2, 11],
    ["L1_Mu3_Jet16er2p7_dEta_Max0p4_dPhi_Max0p4", 443, 4, 72],
    ["L1_Mu3_Jet60er2p7_dEta_Max0p4_dPhi_Max0p4", 444, 3, 21],
    ["L1_Mu3_Jet120er2p7_dEta_Max0p4_dPhi_Max0p4", 445, 2, 134],
    ["L1_SingleEG2_BptxAND", 446, 0, 17],
    ["L1_SingleJet12_BptxAND", 447, 0, 13],
    ["L1_ETT40_BptxAND", 448, 0, 18],
    ["L1_ETT50_BptxAND", 449, 0, 19],
    ["L1_ETT60_BptxAND", 450, 0, 20],
    ["L1_ETT70_BptxAND", 451, 0, 23],
    ["L1_ETT75_BptxAND", 452, 0, 25],
    ["L1_ETT80_BptxAND", 453, 0, 10],
    ["L1_ETT85_BptxAND", 454, 0, 30],
    ["L1_ETT90_BptxAND", 455, 0, 15],
    ["L1_ETT95_BptxAND", 456, 0, 31],
    ["L1_ETT100_BptxAND", 457, 0, 8],
    ["L1_ETT110_BptxAND", 458, 0, 16],
    ["L1_MinimumBiasHF0_AND_BptxAND", 459, 0, 27],
    ["L1_MinimumBiasHF0_OR_BptxAND", 460, 0, 26],
    ["L1_Mu10er2p1_ETM30", 461, 4, 4],
    ["L1_Mu14er2p1_ETM30", 462, 4, 5],
    ["L1_AlwaysTrue", 465, 0, 28],
    ["L1_NotBptxOR", 466, 0, 3],
    ["L1_BptxXOR", 467, 5, 2],
    ["L1_ZeroBias_copy", 468, 0, 14],
    ["L1_BPTX_BeamGas_Ref1_VME", 469, 5, 0],
    ["L1_BPTX_BeamGas_Ref2_VME", 470, 0, 1],
    ["L1_BPTX_BeamGas_B1_VME", 471, 3, 0],
    ["L1_BPTX_BeamGas_B2_VME", 472, 4, 0],
    ["L1_ZeroBias", 473, 0, 29],
    ["L1_BptxPlus", 474, 5, 3],
    ["L1_BptxMinus", 475, 5, 1],
    ["L1_BptxOR", 476, 0, 2],
    ["L1_BPTX_AND_Ref1_VME", 477, 0, 0],
    ["L1_UnpairedBunchBptxPlus", 478, 1, 3],
    ["L1_UnpairedBunchBptxMinus", 479, 4, 2],
    ["L1_BPTX_NotOR_VME", 480, 1, 1],
    ["L1_BPTX_AND_Ref3_VME", 481, 1, 0],
    ["L1_BPTX_OR_Ref3_VME", 482, 2, 1],
    ["L1_BPTX_RefAND_VME", 483, 4, 1],
    ["L1_FirstCollisionInOrbit", 484, 1, 2],
    ["L1_BPTX_AND_Ref4_VME", 485, 2, 0],
    ["L1_BPTX_OR_Ref4_VME", 486, 3, 1],
    ["L1_LastCollisionInTrain", 487, 3, 2],
    ["L1_FirstCollisionInTrain", 488, 2, 2],
    ["L1_CDC_3_TOP120_DPHI1p570_3p142", 490, 0, 93],
    ["L1_CDC_3_TOP120_DPHI2p094_3p142", 491, 2, 126],
    ["L1_CDC_3_TOP120_DPHI2p618_3p142", 492, 4, 64],
    ["L1_CDC_3_TOP_DPHI2p618_3p142", 493, 5, 67],
    ["L1_CDC_3_er1p2_TOP120_DPHI1p570_3p142", 494, 3, 13],
    ["L1_CDC_3_er1p2_TOP120_DPHI2p094_3p142", 495, 1, 62],
    ["L1_CDC_3_er1p2_TOP120_DPHI2p618_3p142", 496, 0, 94],
    ["L1_CDC_3_er1p6_TOP120_DPHI1p570_3p142", 497, 2, 127],
    ["L1_CDC_3_er1p6_TOP120_DPHI2p094_3p142", 498, 4, 65],
    ["L1_CDC_3_er1p6_TOP120_DPHI2p618_3p142", 499, 5, 68],
    ["L1_CDC_3_er2p1_TOP120_DPHI1p570_3p142", 500, 3, 14],
    ["L1_CDC_3_er2p1_TOP120_DPHI2p094_3p142", 501, 1, 63],
    ["L1_CDC_3_er2p1_TOP120_DPHI2p618_3p142", 502, 0, 95],
    ["L1_CDC_SingleMu_3_TOP120_DPHI2p618_3p142", 503, 2, 128],
    ["L1_CDC_SingleMu_3_er1p2_TOP120_DPHI2p618_3p142", 504, 4, 66],
    ["L1_CDC_SingleMu_3_er1p6_TOP120_DPHI2p618_3p142", 505, 5, 69],
    ["L1_CDC_SingleMu_3_er2p1_TOP120_DPHI2p618_3p142", 506, 3, 15],
    ["L1_CDCp1_3_TOP120_DPHI2p618_3p142", 507, 1, 64],
    ["L1_CDCp1_3_er1p2_TOP120_DPHI2p618_3p142", 508, 0, 96],
    ["L1_CDCp1_3_er1p6_TOP120_DPHI2p618_3p142", 509, 2, 129],
    ["L1_CDCp1_3_er2p1_TOP120_DPHI2p618_3p142", 510, 4, 67]
  ]
}
