{
"firmware_uuid" :   "9356f5ac-ef9c-11e5-8a91-001c4289f194"  , 
"menu_uuid"     :   "d06e032d-7df6-529c-ba8f-e171978bb9c6"           ,
"n_modules"     :   1                     ,
"guide"         :   ["AlgoName", "Global_Index","Module_Index", "Local_Index" ],
"algorithms"    :   [
        [ "L1_ZeroBias", 0, 0, 0 ]  , 
        [ "L1_SingleEG2_BptxAND", 1, 0, 1 ]  , 
        [ "L1_SingleMu7", 2, 0, 2 ]  , 
        [ "L1_SingleEG15", 3, 0, 3 ]  , 
        [ "L1_ETT15_BptxAND", 4, 0, 4 ]  , 
        [ "L1_ETT40", 5, 0, 5 ]  , 
        [ "L1_ETT60", 6, 0, 6 ]  , 
        [ "L1_HTT75", 7, 0, 7 ]  , 
        [ "L1_Mu12_EG10", 8, 0, 8 ]  , 
        [ "L1_Mu5_EG15", 9, 0, 9 ]  , 
        [ "L1_DoubleTauJet40er", 10, 0, 10 ]  , 
        [ "L1_Mu16er_TauJet20er", 11, 0, 11 ]  , 
        [ "L1_HTT100", 12, 0, 12 ]  , 
        [ "L1_SingleIsoEG20", 13, 0, 13 ]  , 
        [ "L1_SingleJet52", 14, 0, 14 ]  , 
        [ "L1_SingleJet68", 15, 0, 15 ]  , 
        [ "L1_SingleJet128", 16, 0, 16 ]  , 
        [ "L1_DoubleIsoTau32er", 17, 0, 17 ]  , 
        [ "L1_Mu16er_IsoTau32er", 18, 0, 18 ]  , 
        [ "L1_DoubleMu0", 19, 0, 19 ]  , 
        [ "L1_EG25er_HTT100", 20, 0, 20 ]  , 
        [ "L1_DoubleMuOpen", 21, 0, 21 ]  , 
        [ "L1_SingleIsoEG25er", 22, 0, 22 ]  , 
        [ "L1_SingleIsoEG25", 23, 0, 23 ]  , 
        [ "L1_SingleIsoEG30er", 24, 0, 24 ]  , 
        [ "L1_SingleEG10", 25, 0, 25 ]  , 
        [ "L1_SingleIsoEG22er", 26, 0, 26 ]  , 
        [ "L1_DoubleJetC52", 27, 0, 27 ]  , 
        [ "L1_DoubleJetC84", 28, 0, 28 ]  , 
        [ "L1_SingleMu14er", 29, 0, 29 ]  , 
        [ "L1_DoubleMu_10_Open", 30, 0, 30 ]  , 
        [ "L1_DoubleMu_10_3p5", 31, 0, 31 ]  , 
        [ "L1_QuadJetC40", 32, 0, 32 ]  , 
        [ "L1_SingleEG5", 33, 0, 33 ]  , 
        [ "L1_SingleEG25", 34, 0, 34 ]  , 
        [ "L1_SingleEG40", 35, 0, 35 ]  , 
        [ "L1_SingleIsoEG18er", 36, 0, 36 ]  , 
        [ "L1_SingleIsoEG20er", 37, 0, 37 ]  , 
        [ "L1_SingleEG20", 38, 0, 38 ]  , 
        [ "L1_SingleEG30", 39, 0, 39 ]  , 
        [ "L1_SingleEG35", 40, 0, 40 ]  , 
        [ "L1_SingleMuOpen", 41, 0, 41 ]  , 
        [ "L1_SingleMu16", 42, 0, 42 ]  , 
        [ "L1_SingleMu5", 43, 0, 43 ]  , 
        [ "L1_SingleMu20er", 44, 0, 44 ]  , 
        [ "L1_SingleMu12", 45, 0, 45 ]  , 
        [ "L1_SingleMu20", 46, 0, 46 ]  , 
        [ "L1_Mu8_HTT50", 47, 0, 47 ]  , 
        [ "L1_SingleMu25", 48, 0, 48 ]  , 
        [ "L1_SingleMu30", 49, 0, 49 ]  , 
        [ "L1_ETM30", 50, 0, 50 ]  , 
        [ "L1_ETM50", 51, 0, 51 ]  , 
        [ "L1_ETM70", 52, 0, 52 ]  , 
        [ "L1_ETM100", 53, 0, 53 ]  , 
        [ "L1_HTT125", 54, 0, 54 ]  , 
        [ "L1_HTT150", 55, 0, 55 ]  , 
        [ "L1_HTT175", 56, 0, 56 ]  , 
        [ "L1_HTT200", 57, 0, 57 ]  , 
        [ "L1_Mu20_EG10", 58, 0, 58 ]  , 
        [ "L1_Mu5_EG20", 59, 0, 59 ]  , 
        [ "L1_Mu5_IsoEG18", 60, 0, 60 ]  , 
        [ "L1_Mu6_DoubleEG10", 61, 0, 61 ]  , 
        [ "L1_SingleJetC32_NotBptxOR", 62, 0, 62 ]  , 
        [ "L1_ETM40", 63, 0, 63 ]  , 
        [ "L1_HTT250", 64, 0, 64 ]  , 
        [ "L1_Mu10er_ETM30", 65, 0, 65 ]  , 
        [ "L1_Mu10er_ETM50", 66, 0, 66 ]  , 
        [ "L1_Mu14er_ETM30", 67, 0, 67 ]  , 
        [ "L1_DoubleMu7_EG7", 68, 0, 68 ]  , 
        [ "L1_SingleMu16er", 69, 0, 69 ]  , 
        [ "L1_Mu6_HTT100", 70, 0, 70 ]  , 
        [ "L1_Mu4_EG18", 71, 0, 71 ]  , 
        [ "L1_SingleMuOpen_NotBptxOR", 72, 0, 72 ]  , 
        [ "L1_DoubleMu6_EG6", 73, 0, 73 ]  , 
        [ "L1_Mu5_DoubleEG5", 74, 0, 74 ]  , 
        [ "L1_DoubleEG6_HTT150", 75, 0, 75 ]  , 
        [ "L1_QuadJetC36_TauJet52", 76, 0, 76 ]  , 
        [ "L1_Mu0er_ETM40", 77, 0, 77 ]  , 
        [ "L1_Mu16er_IsoTau28er", 78, 0, 78 ]  , 
        [ "L1_TripleMu0", 79, 0, 79 ]  , 
        [ "L1_TripleMu_5_5_3", 80, 0, 80 ]  , 
        [ "L1_TripleEG_14_10_8", 81, 0, 81 ]  , 
        [ "L1_DoubleEG_15_10", 82, 0, 82 ]  , 
        [ "L1_DoubleEG_22_10", 83, 0, 83 ]  , 
        [ "L1_Mu0er_ETM55", 84, 0, 84 ]  , 
        [ "L1_ETM60", 85, 0, 85 ]  , 
        [ "L1_DoubleJetC100", 86, 0, 86 ]  , 
        [ "L1_QuadJetC60", 87, 0, 87 ]  , 
        [ "L1_SingleJetC20_NotBptxOR", 88, 0, 88 ]  , 
        [ "L1_DoubleJetC56_ETM60", 89, 0, 89 ]  , 
        [ "L1_DoubleIsoTau28er", 90, 0, 90 ]  , 
        [ "L1_DoubleIsoTau36er", 91, 0, 91 ]  , 
        [ "L1_DoubleIsoTau40er", 92, 0, 92 ]  , 
        [ "L1_TripleJet_92_76_64_VBF", 93, 0, 93 ]  , 
        [ "L1_TripleJet_84_68_48_VBF", 94, 0, 94 ]  , 
        [ "L1_QuadMu0", 95, 0, 95 ]  , 
        [ "L1_DoubleMu_12_5", 96, 0, 96 ]  , 
        [ "L1_SingleMuBeamHalo", 97, 0, 97 ]  , 
        [ "L1_AlwaysTrue", 98, 0, 98 ]  , 
        [ "L1_SingleMu7woQcut", 99, 0, 99 ]  , 
        [ "L1_Mu12woQcut_EG10", 100, 0, 100 ]  , 
        [ "L1_Mu5woQcut_EG15", 101, 0, 101 ]  , 
        [ "L1_Mu16erwoQcut_TauJet20er", 102, 0, 102 ]  , 
        [ "L1_Mu16erwoQcut_IsoTau32er", 103, 0, 103 ]  , 
        [ "L1_DoubleMu0woQcut", 104, 0, 104 ]  , 
        [ "L1_SingleMu14woQcut_Eta2p1", 105, 0, 105 ]  , 
        [ "L1_DoubleMu_10_Open_woQcut", 106, 0, 106 ]  , 
        [ "L1_DoubleMu_10_3p5_woQcut", 107, 0, 107 ]  , 
        [ "L1_SingleMuOpenwoQcut", 108, 0, 108 ]  , 
        [ "L1_SingleMu16woQcut", 109, 0, 109 ]  , 
        [ "L1_SingleMu5woQcut", 110, 0, 110 ]  , 
        [ "L1_SingleMu20erwoQcut", 111, 0, 111 ]  , 
        [ "L1_SingleMu12woQcut", 112, 0, 112 ]  , 
        [ "L1_SingleMu20woQcut", 113, 0, 113 ]  , 
        [ "L1_Mu8woQcut_HTT50", 114, 0, 114 ]  , 
        [ "L1_SingleMu25woQcut", 115, 0, 115 ]  , 
        [ "L1_SingleMu30woQcut", 116, 0, 116 ]  , 
        [ "L1_Mu20woQcut_EG10", 117, 0, 117 ]  , 
        [ "L1_Mu5woQcut_EG20", 118, 0, 118 ]  , 
        [ "L1_Mu5woQcut_IsoEG18", 119, 0, 119 ]  , 
        [ "L1_Mu6woQcut_DoubleEG10", 120, 0, 120 ]  , 
        [ "L1_Mu10erwoQcut_ETM30", 121, 0, 121 ]  , 
        [ "L1_Mu10erwoQcut_ETM50", 122, 0, 122 ]  , 
        [ "L1_Mu14erwoQcut_ETM30", 123, 0, 123 ]  , 
        [ "L1_DoubleMu7woQcut_EG7", 124, 0, 124 ]  , 
        [ "L1_SingleMu16woQcut_Eta2p1", 125, 0, 125 ]  , 
        [ "L1_Mu6woQcut_HTT100", 126, 0, 126 ]  , 
        [ "L1_Mu4woQcut_EG18", 127, 0, 127 ]  , 
        [ "L1_DoubleMu6woQcut_EG6", 128, 0, 128 ]  , 
        [ "L1_Mu5woQcut_DoubleEG5", 129, 0, 129 ]  , 
        [ "L1_Mu0erwoQcut_ETM40", 130, 0, 130 ]  , 
        [ "L1_Mu16erwoQcut_IsoTau28er", 131, 0, 131 ]  , 
        [ "L1_TripleMu0woQcut", 132, 0, 132 ]  , 
        [ "L1_TripleMu_5_5_3woQcut", 133, 0, 133 ]  , 
        [ "L1_QuadMu0woQcut", 134, 0, 134 ]  , 
        [ "L1_DoubleMu_12_5woQcut", 135, 0, 135 ]  , 
        [ "L1_Mu0p5_SingleEG5", 136, 0, 136 ]  , 
        [ "L1_SingleJet92", 137, 0, 137 ]  , 
        [ "L1_SingleJet176", 138, 0, 138 ]  , 
        [ "L1_SingleJet200", 139, 0, 139 ]  , 
        [ "L1_SingleJet36", 140, 0, 140 ]  , 
        [ "L1_DoubleJetC112", 141, 0, 141 ]  , 
        [ "L1_DoubleMu0_Eta1p6_WdEta18", 142, 0, 142 ]  , 
        [ "L1_DoubleMu0_Eta1p6_WdEta18_OS", 143, 0, 143 ]  , 
        [ "L1_DoubleMu_10_0_WdEta18", 144, 0, 144 ]  , 
        [ "L1_IsoEG20er_TauJet20er_NotWdEta0", 145, 0, 145 ]  , 
        [ "L1_Jet32_DoubleMu_Open_10_MuMuNotWdPhi23_JetMuWdPhi1", 146, 0, 146 ]  , 
        [ "L1_Jet32_MuOpen_EG10_MuEGNotWdPhi3_JetMuWdPhi1", 147, 0, 147 ]  , 
        [ "L1_Mu3_JetC16_WdEtaPhi2", 148, 0, 148 ]  , 
        [ "L1_Mu3_JetC52_WdEtaPhi2", 149, 0, 149 ]  , 
        [ "L1_SingleEG2", 150, 0, 150 ]  , 
        [ "L1_SingleEG3", 151, 0, 151 ]  , 
        [ "L1_SingleJet8", 152, 0, 152 ]  , 
        [ "L1_SingleJet12", 153, 0, 153 ]  , 
        [ "L1_SingleJet16", 154, 0, 154 ]  , 
        [ "L1_ETM20", 155, 0, 155 ]  , 
        [ "L1_ETT20", 156, 0, 156 ]  , 
        [ "L1_ETT30", 157, 0, 157 ]  , 
        [ "L1_HTT30", 158, 0, 158 ]  , 
        [ "L1_HTT50", 159, 0, 159 ]  , 
        [ "L1_SingleMu3woQcut", 160, 0, 160 ]  , 
        [ "L1_BptxAND", 161, 0, 161 ]  , 
        [ "L1_BptxPlus", 162, 0, 162 ]  , 
        [ "L1_BptxMinus", 163, 0, 163 ]  , 
        [ "L1_BptxOR", 164, 0, 164 ]  , 
        [ "L1_ExtCond_032", 165, 0, 165 ]  , 
        [ "L1_ExtCond_033", 166, 0, 166 ]  , 
        [ "L1_ExtCond_034", 167, 0, 167 ]  , 
        [ "L1_ExtCond_035", 168, 0, 168 ] 
                    ]
}